<?xml version="1.0" encoding="utf-8"?>
<!-- Generator: Adobe Illustrator 18.0.0, SVG Export Plug-In . SVG Version: 6.00 Build 0)  -->
<!DOCTYPE svg PUBLIC "-//W3C//DTD SVG 1.1//EN" "http://www.w3.org/Graphics/SVG/1.1/DTD/svg11.dtd">
<svg version="1.1" id="Layer_1" xmlns="http://www.w3.org/2000/svg" xmlns:xlink="http://www.w3.org/1999/xlink" x="0px" y="0px"
	 viewBox="467.5 274.5 25 14.9" enable-background="new 467.5 274.5 25 14.9" xml:space="preserve">
<g opacity="0.75">
	<rect x="467.5" y="274.5" fill="#FFFFFF" width="25" height="1.6"/>
	<rect x="467.5" y="281.2" fill="#FFFFFF" width="25" height="1.6"/>
	<rect x="467.5" y="287.9" fill="#FFFFFF" width="25" height="1.6"/>
</g>
</svg>
